Project 1: Wrangling, Exploration, Visualization
…
For this project, I am analyzing information about murders and killings by police in America in 2015.The murder dataset contains information about the locations and number of murders that took place in 2014 and 2015. The police killings dataset contains more detailed statisics about the places where the killings took place. For instance, it includes information about the average income and education levels of households in the area the crimes were committed. I first chose the murders dataset because Ive been into murder documentaries this Halloween season! I decided to tie in police killings data as it is a specific type of murder that has been receiving a lot of social and political attention. From this project, I am curious to discover what relationships exist, if any, between general murders and murders by police officers in American cities.

library(tidyverse)
data1 <- read_csv("https://raw.githubusercontent.com/fivethirtyeight/data/master/murder_2016/murder_2015_final.csv")
data2 <- read_csv("https://raw.githubusercontent.com/fivethirtyeight/data/master/police-killings/police_killings.csv")

Tidying: Reshaping

My datasets are tidy already, but I will demonstrate that I can reshape a portion of my data with pivot wider/longer here (e.g., untidy and then retidy).

widerdat2 <- data2 %>% pivot_wider()
widerdat2 %>% pivot_longer(cols = c(1:2))

## # A tibble: 934 x 33
##    raceethnicity month   day  year streetaddress city  state latitude longitude
##    <chr>         <chr> <dbl> <dbl> <chr>         <chr> <chr>    <dbl>     <dbl>
##  1 Black         Febr    23  2015 Clearview Ln  Mill AL        32.5     -86.4
##  2 Black         Febr    23  2015 Clearview Ln  Mill AL        32.5     -86.4
##  3 White         April     2  2015 300 block Ir Pine LA        31.3     -92.4
##  4 White         April     2  2015 300 block Ir Pine LA        31.3     -92.4
##  5 White         March    14  2015 22nd Ave and Keno WI        42.6     -87.8
##  6 White         March    14  2015 22nd Ave and Keno WI        42.6     -87.8
##  7 Hispanic/Lat March    11  2015 3000 Seminol Sout CA        33.9    -118. 
##  8 Hispanic/Lat March    11  2015 3000 Seminol Sout CA        33.9    -118. 
##  9 White         March    19  2015 364 Hiwood A Munr OH        41.1     -81.4
## 10 White         March    19  2015 364 Hiwood A Munr OH        41.1     -81.4
## #  with 924 more rows, and 24 more variables: state_fp <dbl>, county_fp <dbl>,
## #   tract_ce <dbl>, geo_id <dbl>, county_id <dbl>, namelsad <chr>,
## #   lawenforcementagency <chr>, cause <chr>, armed <chr>, pop <dbl>,
## #   share_white <chr>, share_black <chr>, share_hispanic <chr>, p_income <chr>,
## #   h_income <dbl>, county_income <dbl>, comp_income <dbl>,
## #   county_bucket <dbl>, nat_bucket <dbl>, pov <chr>, urate <dbl>,
## #   college <dbl>, name <chr>, value <chr>
…
## # A tibble: 1 x 1
##   `n()`
##   <int>
## 1    83

data2 %>% summarize(n())

## # A tibble: 1 x 1
##   `n()`
##   <int>
## 1   467

anti_join(data1, data2, by = "city")

## # A tibble: 30 x 5
##    city                  state          `2014_murders` `2015_murders` change
##    <chr>                 <chr>                   <dbl>          <dbl>  <dbl>
##  1 Philadelphia          Pennsylvania              248            280     32
##  2 St. Louis             Missouri                  159            188     29
##  3 Louisville            Kentucky                   56             81     25
##  4 Charlotte-Mecklenburg North Carolina             47             61     14
##  5 Fort Wayne            Indiana                    12             25     13
##  6 Durham                North Carolina             21             34     13
##  7 Newark                New Jersey                 93            104     11
##  8 Cincinnati            Ohio                       60             66      6
##  9 Tampa                 Florida                    28             34      6
## 10 Colorado Springs      Colorado                   20             25      5
## #  with 20 more rows
…
## # A tibble: 6 x 4
##   city    `2015_murders` name                      age    
##   <chr>            <dbl> <chr>                     <chr>  
## 1 Houston            303 Alejandro Salazar         Unknown
## 2 Houston            303 Frank 'Trey' Shephard III 41     
## 3 Houston            303 Hung Trieu                35     
## 4 Houston            303 Victor Reyes              31     
## 5 Houston            303 Phillip Garcia            26     
## 6 Houston            303 Celin Nunez               24

joined_project_data %>% filter(state.x == "Texas") %>% group_by(city) %>% 
    select(1, 4, 6:9) %>% na.omit

## # A tibble: 22 x 6
## # Groups:   city [8]
##    city      `2015_murders` name               age    gender raceethnicity      
##    <chr>              <dbl> <chr>              <chr>  <chr>  <chr>              
##  1 Houston              303 Alejandro Salazar  Unkno Male   Hispanic/Latino    
##  2 Houston              303 Celin Nunez        24     Male   Hispanic/Latino    
##  3 Houston              303 Frank 'Trey' Shep 41     Male   Black              
##  4 Houston              303 Hung Trieu         35     Male   Asian/Pacific Isla
##  5 Houston              303 Phillip Garcia     26     Male   Hispanic/Latino    
##  6 Houston              303 Victor Reyes       31     Male   Hispanic/Latino    
##  7 Dallas               136 Desmond Luster     45     Male   Black              
##  8 Fort Wor             56 Daniel Brumley     25     Male   Hispanic/Latino    
##  9 Fort Wor             56 Kelvin Goldston    30     Male   Black              
## 10 Fort Wor             56 Reginald McGregor  31     Male   Black              
## #  with 12 more rows
…
joined_project_data %>% filter(str_detect(city, "^[aeiouAEIOU]")) %>% 
    summarize(n_distinct(city))

## # A tibble: 1 x 1
##   `n_distinct(city)`
##                <int>
## 1                 14

joined_project_data %>% group_by(city) %>% na.omit %>% summarize(mean(pop), 
    sd(pop), var(pop), quantile(pop), min(pop), max(pop), n_distinct(pop))

## # A tibble: 265 x 8
## # Groups:   city [53]
##    city  `mean(pop)` `sd(pop)` `var(pop)` `quantile(pop)` `min(pop)` `max(pop)`
##    <chr>       <dbl>     <dbl>      <dbl>           <dbl>      <dbl>      <dbl>
##  1 Albu       4304.     1272.   1618200.           3404        3404       5203
##  2 Albu       4304.     1272.   1618200.           3854.       3404       5203
##  3 Albu       4304.     1272.   1618200.           4304.       3404       5203
##  4 Albu       4304.     1272.   1618200.           4753.       3404       5203
##  5 Albu       4304.     1272.   1618200.           5203        3404       5203
##  6 Anah       7400      3306.  10932488            5062        5062       9738
##  7 Anah       7400      3306.  10932488            6231        5062       9738
##  8 Anah       7400      3306.  10932488            7400        5062       9738
##  9 Anah       7400      3306.  10932488            8569        5062       9738
## 10 Anah       7400      3306.  10932488            9738        5062       9738
## #  with 255 more rows, and 1 more variable: `n_distinct(pop)` <int>

joined_project_data %>% group_by(city, gender) %>% na.omit %>% 
    summarize(mean(h_income), sd(h_income), var(h_income), quantile(h_income), 
        min(h_income), max(h_income), n_distinct(h_income))

## # A tibble: 290 x 9
## # Groups:   city, gender [58]
##    city  gender `mean(h_income)` `sd(h_income)` `var(h_income)` `quantile(h_inc
##    <chr> <chr>             <dbl>          <dbl>           <dbl>            <dbl>
##  1 Albu Male              47253         10751.       115580808            39651
##  2 Albu Male              47253         10751.       115580808            43452
##  3 Albu Male              47253         10751.       115580808            47253
##  4 Albu Male              47253         10751.       115580808            51054
##  5 Albu Male              47253         10751.       115580808            54855
##  6 Anah Female            45353            NA               NA            45353
##  7 Anah Female            45353            NA               NA            45353
##  8 Anah Female            45353            NA               NA            45353
##  9 Anah Female            45353            NA               NA            45353
## 10 Anah Female            45353            NA               NA            45353
## #  with 280 more rows, and 3 more variables: `min(h_income)` <dbl>,
## #   `max(h_income)` <dbl>, `n_distinct(h_income)` <int>

joined_project_data %>% group_by(city) %>% na.omit %>% summarize(mean(county_income), 
    sd(county_income), var(county_income), quantile(county_income), 
    min(county_income), max(county_income), n_distinct(county_income))

## # A tibble: 265 x 8
## # Groups:   city [53]
##    city  `mean(county_in `sd(county_inco `var(county_inc `quantile(count
##    <chr>            <dbl>            <dbl>            <dbl>            <dbl>
##  1 Albu            48801                0                0            48801
##  2 Albu            48801                0                0            48801
##  3 Albu            48801                0                0            48801
##  4 Albu            48801                0                0            48801
##  5 Albu            48801                0                0            48801
##  6 Anah            75422                0                0            75422
##  7 Anah            75422                0                0            75422
##  8 Anah            75422                0                0            75422
##  9 Anah            75422                0                0            75422
## 10 Anah            75422                0                0            75422
## #  with 255 more rows, and 3 more variables: `min(county_income)` <dbl>,
## #   `max(county_income)` <dbl>, `n_distinct(county_income)` <int>
…
